…
    ## Warning in fn(col, ...): NAs introduced by coercion
    
    ## Warning in fn(col, ...): NAs introduced by coercion
    
    ## Warning in fn(col, ...): NAs introduced by coercion

``` r
preds
```

    ## # A tibble: 2,788 x 6
    ##    country  year period incidence_civil_ns incidence_civil_ns_plus1 prediction
    ##    <chr>   <dbl>  <dbl>              <dbl>                    <dbl>      <dbl>
    ##  1 AFG      2008     15                 NA                       NA     0.0691
    ##  2 AFG      2008     16                 NA                       NA     0.0684
    ##  3 AFG      2009     17                 NA                       NA     0.0719
    ##  4 AFG      2009     18                 NA                       NA     0.0687
    ##  5 AFG      2010     19                 NA                       NA     0.0717
    ##  6 AFG      2010     20                 NA                       NA     0.0709
    ##  7 AFG      2011     21                 NA                       NA     0.0435
    ##  8 AFG      2011     22                 NA                       NA     0.0694
    ##  9 AFG      2012     23                 NA                       NA     0.0708
    ## 10 AFG      2012     24                 NA                       NA     0.0868
    ## # … with 2,778 more rows
…
